{
    "KPlugin": {
        "Description": "Stats of per-process GPU resources for Nvidia cards",
        "Description[az]": "Nvidia kartları üçün hər bir prosesə GPU mənbələrinin statistikası",
        "Description[ca]": "Estadístiques dels recursos de GPU per procés per a les targetes Nvidia",
        "Description[de]": "Statistik der GPU-Ressourcen je Prozess für Nvidia-Grafikkarten",
        "Description[en_GB]": "Stats of per-process GPU resources for Nvidia cards",
        "Description[es]": "Estadísticas de recursos de GPU por proceso para tarjetas Nvidia",
        "Description[fr]": "Statistiques des ressources « GPU » par processus pour des cartes nVidia.",
        "Description[it]": "Statistiche per processo delle risorse GPU per le schede Nvidia",
        "Description[ko]": "Nvidia 카드의 프로세스별 GPU 자원 통계",
        "Description[nl]": "Statistieken van per-proces GPU-hulpbronnen voor Nvidia kaarten",
        "Description[pl]": "Statystyka dla zasobów GPU na proces dla kart Nvidii",
        "Description[pt]": "Estatísticas dos recursos do GPU por processo nas placas Nvidia",
        "Description[pt_BR]": "Estatísticas dos recursos da GPU por processo para placas Nvidia",
        "Description[sl]": "Statistike virov GPE Nvidia kartic po procesih",
        "Description[sv]": "Statistik över grafikprocessorresurser per process för Nvidia-kort",
        "Description[uk]": "Статистика ресурсів окремих процесів графічного процесора для карток NVidia",
        "Description[x-test]": "xxStats of per-process GPU resources for Nvidia cardsxx",
        "Description[zh_CN]": "单个进程的 GPU 资源状态，仅限 Nvidia 显卡"
    }
}
